17 Strings – COMP/STAT112 Notebook
…
#i am a genius. unless someone has one of those kooky last names like "McNally" that has a capital in the middle. 
#...like kelly MacGregor. Darn. and MaryBeth Gagner. Surely theres some way to make it only do this when there are two spaces but i don't know how to do that lol, so we'll just treat them by their first names. the only actual boon here is to be able to see the name of the first instructor clearly, but regardless, lets ask the same question: which instructor has the most full classes, on average?

enrollments_2 |>
  select(dept, section, number, name, avail, instructor) |>
  group_by(instructor) |>
  summarize(avgspace=mean(as.numeric(avail))) |>
  arrange(avgspace)

# A tibble: 242 × 2
   instructor       avgspace
   <chr>               <dbl>
 1 Andrew Beveridge    -8   
 2 Tina Kruse          -5   
 3 Vittorio Addona     -5   
 4 Kristin Heysse      -3.33
 5 Amy Sullivan        -3   
 6 Elizabeth Jansen    -3   
 7 Lori Ziegelmeier    -3   
 8 Dennis Cao          -2.5 
 9 Ali Alizadeh        -2   
10 David Schultz       -2   
# ℹ 232 more rows
…
