14 Reshaping – COMP/STAT112 Notebook
…
Should you first pivot wider or longer?

Once you pivot, the week number is turned into a character variable. How can you change it to a number?

Exercise 6: Practice with the Daily Show

The data associated with this article is available in the fivethirtyeight package, and is loaded into daily below. It includes a list of every guest to ever appear on Jon Stewart’s The Daily Show, a “late-night talk and satirical news” program (per Wikipedia). Check out the dataset and note that when multiple people appeared together, each person receives their own line:

library(fivethirtyeight)
data("daily_show_guests")
daily <- daily_show_guests
daily

# A tibble: 2,693 × 5
    year google_knowledge_occupation show       group    raw_guest_list  
   <int> <chr>                       <date>     <chr>    <chr>           
 1  1999 actor                       1999-01-11 Acting   Michael J. Fox  
 2  1999 comedian                    1999-01-12 Comedy   Sandra Bernhard 
 3  1999 television actress          1999-01-13 Acting   Tracey Ullman   
 4  1999 film actress                1999-01-14 Acting   Gillian Anderson
 5  1999 actor                       1999-01-18 Acting   David Alan Grier
 6  1999 actor                       1999-01-19 Acting   William Baldwin 
 7  1999 singer-lyricist             1999-01-20 Musician Michael Stipe   
 8  1999 model                       1999-01-21 Media    Carmen Electra  
 9  1999 actor                       1999-01-25 Acting   Matthew Lillard 
10  1999 stand-up comedian           1999-01-26 Comedy   David Cross     
# ℹ 2,683 more rows
…
subjects/people

Part c

pivot_longer()

Exercise 2: Pivot longer

Part a

# For cols, try 2 appproaches: using - and starts_with
sleep_wide |>
  pivot_longer(cols = -Subject, names_to = "day", values_to = "reaction_time")

# A tibble: 180 × 3
   Subject day   reaction_time
     <int> <chr>         <dbl>
 1     308 day_0          250.
 2     308 day_1          259.
 3     308 day_2          251.
 4     308 day_3          321.
 5     308 day_4          357.
 6     308 day_5          415.
 7     308 day_6          382.
 8     308 day_7          290.
 9     308 day_8          431.
10     308 day_9          466.
# ℹ 170 more rows

sleep_wide |>
  pivot_longer(cols = starts_with("day"), names_to = "day", values_to = "reaction_time")

# A tibble: 180 × 3
   Subject day   reaction_time
     <int> <chr>         <dbl>
 1     308 day_0          250.
 2     308 day_1          259.
 3     308 day_2          251.
 4     308 day_3          321.
 5     308 day_4          357.
 6     308 day_5          415.
 7     308 day_6          382.
 8     308 day_7          290.
 9     308 day_8          431.
10     308 day_9          466.
# ℹ 170 more rows
…
