14 Data Import – COMP/STAT112 Notebook
…
Follow-up:

Create a new dataset with only and all movies that have complete info on duration and color. HINT: You could use !is.na(___) or drop_na() (differently than above)

Use this new dataset to create a new and improved plot.

How many movies remain in your new dataset? Hence why this is better than using the dataset from part b?

imdb_color <- imdb_messy |>
  filter(!is.na(color) & !is.na(duration))
imdb_color

# A tibble: 5,010 × 29
    ...1 color director_name     num_critic_for_reviews duration
   <dbl> <chr> <chr>                              <dbl>    <dbl>
 1     1 Color James Cameron                        723      178
 2     2 Color Gore Verbinski                       302      169
 3     3 Color Sam Mendes                           602      148
 4     4 Color Christopher Nolan                    813      164
 5     6 Color Andrew Stanton                       462      132
 6     7 Color Sam Raimi                            392      156
 7     8 Color Nathan Greno                         324      100
 8     9 Color Joss Whedon                          635      141
 9    10 Color David Yates                          375      153
10    11 Color Zack Snyder                          673      183
# ℹ 5,000 more rows
# ℹ 24 more variables: director_facebook_likes <dbl>,
#   actor_3_facebook_likes <dbl>, actor_2_name <chr>,
#   actor_1_facebook_likes <dbl>, gross <dbl>, genres <chr>,
#   actor_1_name <chr>, movie_title <chr>, num_voted_users <dbl>,
#   cast_total_facebook_likes <dbl>, actor_3_name <chr>,
#   facenumber_in_poster <dbl>, plot_keywords <chr>, movie_imdb_link <chr>, …
…
Part d

In some cases, missing data is more non-data than unknown data. For example, the films with NAs for actor_1_facebook_likes actually have 0 Facebook likes–they don’t even have actors! In these cases, we can replace the NAs with a 0. Use the replace_na() function to create a new dataset (imdb_temp) that replaces the NAs in actor_1_facebook_likes with 0. You’ll have to check out the help file for this function.

imdb_temp <- imdb_messy |>
  mutate(actor_1_facebook_likes = replace_na(actor_1_facebook_likes, 0))
imdb_temp |>
  arrange(actor_1_facebook_likes)

# A tibble: 5,043 × 29
    ...1 color director_name      num_critic_for_reviews duration
   <dbl> <chr> <chr>                               <dbl>    <dbl>
 1  2242 Color <NA>                                    6       24
 2  3347 Color J.C. Chandor                          346      106
 3  4369 Color Khyentse Norbu                         44      108
 4  4417 Color Dror Moreh                            105      101
 5  4440 Color Robert Greenwald                       56       20
 6  4469 Color Sadyk Sher-Niyaz                       16      135
 7  4503 Color Léa Pool                               23       97
 8  4520 Color Harry Gantz                            12      105
 9  4652 Color Mariette Monpierre                      2       78
10  4715 Color Johanna Schwartz                       22      105
# ℹ 5,033 more rows
# ℹ 24 more variables: director_facebook_likes <dbl>,
#   actor_3_facebook_likes <dbl>, actor_2_name <chr>,
#   actor_1_facebook_likes <dbl>, gross <dbl>, genres <chr>,
#   actor_1_name <chr>, movie_title <chr>, num_voted_users <dbl>,
#   cast_total_facebook_likes <dbl>, actor_3_name <chr>,
#   facenumber_in_poster <dbl>, plot_keywords <chr>, movie_imdb_link <chr>, …
…
