12 Dates – COMP/STAT112 Notebook
…
Build your code line by line. It’s important to understand what’s being piped into each function!

Ask what you can rearrange and still get the same result.

Read your final code like a paragraph / a conversation. Would another person be able to follow your logic?

# Sort Gentoo penguins from biggest to smallest with respect to their 
# bill length in cm (there are 10 mm in a cm)
penguins |>
  filter(species=="Gentoo") |>
  mutate(bill_length_cm=(bill_length_mm/10)) |>
  arrange(desc(bill_length_cm))

# A tibble: 124 × 9
   species island bill_length_mm bill_depth_mm flipper_length_mm body_mass_g
   <chr>   <chr>           <dbl>         <dbl>             <dbl>       <dbl>
 1 Gentoo  Biscoe           59.6          17                 230        6050
 2 Gentoo  Biscoe           55.9          17                 228        5600
 3 Gentoo  Biscoe           55.1          16                 230        5850
 4 Gentoo  Biscoe           54.3          15.7               231        5650
 5 Gentoo  Biscoe           53.4          15.8               219        5500
 6 Gentoo  Biscoe           52.5          15.6               221        5450
 7 Gentoo  Biscoe           52.2          17.1               228        5400
 8 Gentoo  Biscoe           52.1          17                 230        5550
 9 Gentoo  Biscoe           51.5          16.3               230        5500
10 Gentoo  Biscoe           51.3          14.2               218        5300
# ℹ 114 more rows
# ℹ 3 more variables: sex <chr>, year <dbl>, bill_length_cm <dbl>
…
Use these shortcuts to create the following datasets.

# First: recall the variable names
names(penguins)

[1] "species"           "island"            "bill_length_mm"   
[4] "bill_depth_mm"     "flipper_length_mm" "body_mass_g"      
[7] "sex"               "year"             

# Use a shortcut to keep everything but the year and island variables
penguins |>
  select(-island,-year)

# A tibble: 344 × 6
   species bill_length_mm bill_depth_mm flipper_length_mm body_mass_g sex   
   <chr>            <dbl>         <dbl>             <dbl>       <dbl> <chr> 
 1 Adelie            39.1          18.7               181        3750 male  
 2 Adelie            39.5          17.4               186        3800 female
 3 Adelie            40.3          18                 195        3250 female
 4 Adelie            NA            NA                  NA          NA <NA>  
 5 Adelie            36.7          19.3               193        3450 female
 6 Adelie            39.3          20.6               190        3650 male  
 7 Adelie            38.9          17.8               181        3625 female
 8 Adelie            39.2          19.6               195        4675 male  
 9 Adelie            34.1          18.1               193        3475 <NA>  
10 Adelie            42            20.2               190        4250 <NA>  
# ℹ 334 more rows

# Use a shortcut to keep only species and the penguin characteristics measured in mm
penguins |>
  select(species,ends_with("mm"))

# A tibble: 344 × 4
   species bill_length_mm bill_depth_mm flipper_length_mm
   <chr>            <dbl>         <dbl>             <dbl>
 1 Adelie            39.1          18.7               181
 2 Adelie            39.5          17.4               186
 3 Adelie            40.3          18                 195
 4 Adelie            NA            NA                  NA
 5 Adelie            36.7          19.3               193
 6 Adelie            39.3          20.6               190
 7 Adelie            38.9          17.8               181
 8 Adelie            39.2          19.6               195
 9 Adelie            34.1          18.1               193
10 Adelie            42            20.2               190
# ℹ 334 more rows

# Use a shortcut to keep only species and bill-related measurements
penguins |>
  select(species,starts_with("bill"))

# A tibble: 344 × 3
   species bill_length_mm bill_depth_mm
   <chr>            <dbl>         <dbl>
 1 Adelie            39.1          18.7
 2 Adelie            39.5          17.4
 3 Adelie            40.3          18  
 4 Adelie            NA            NA  
 5 Adelie            36.7          19.3
 6 Adelie            39.3          20.6
 7 Adelie            38.9          17.8
 8 Adelie            39.2          19.6
 9 Adelie            34.1          18.1
10 Adelie            42            20.2
# ℹ 334 more rows

# Use a shortcut to keep only species and the length-related characteristics
penguins |>
  select(species,contains("length"))

# A tibble: 344 × 3
   species bill_length_mm flipper_length_mm
   <chr>            <dbl>             <dbl>
 1 Adelie            39.1               181
 2 Adelie            39.5               186
 3 Adelie            40.3               195
 4 Adelie            NA                  NA
 5 Adelie            36.7               193
 6 Adelie            39.3               190
 7 Adelie            38.9               181
 8 Adelie            39.2               195
 9 Adelie            34.1               193
10 Adelie            42                 190
# ℹ 334 more rows

Exercise 3: Arranging, Counting, & Grouping by Multiple Variables

We’ve done examples where we need to filter() by more than one variable, or select() more than one variable. Use your intuition for how we can arrange(), count(), and group_by() more than one variable.

# Change this code to sort the penguins by species, and then island name
# NOTE: The first row should be an Adelie penguin living on Biscoe island
penguins |> 
  arrange(species,island)

# A tibble: 344 × 8
   species island bill_length_mm bill_depth_mm flipper_length_mm body_mass_g
   <chr>   <chr>           <dbl>         <dbl>             <dbl>       <dbl>
 1 Adelie  Biscoe           37.8          18.3               174        3400
 2 Adelie  Biscoe           37.7          18.7               180        3600
 3 Adelie  Biscoe           35.9          19.2               189        3800
 4 Adelie  Biscoe           38.2          18.1               185        3950
 5 Adelie  Biscoe           38.8          17.2               180        3800
 6 Adelie  Biscoe           35.3          18.9               187        3800
 7 Adelie  Biscoe           40.6          18.6               183        3550
 8 Adelie  Biscoe           40.5          17.9               187        3200
 9 Adelie  Biscoe           37.9          18.6               172        3150
10 Adelie  Biscoe           40.5          18.9               180        3950
# ℹ 334 more rows
# ℹ 2 more variables: sex <chr>, year <dbl>
…
Birthdays gives the number of births recorded on each day of the year in each state from 1969 to 19881. We can use our wrangling skills to understand some drivers of daily births. Putting these all together can be challenging! Remember the following ways to make tasks more manageable:

Translate the prompt into our 6 verbs (and count()). That is, think before you type.

Build your code line by line. It’s important to understand what’s being piped into each function!

Exercise 5: Warming up

# How many days of data do we have for each state?
Birthdays |>
  group_by(state) |>
  count()

# A tibble: 51 × 2
# Groups:   state [51]
   state     n
   <chr> <int>
 1 AK     7306
 2 AL     7312
 3 AR     7310
 4 AZ     7310
 5 CA     7325
 6 CO     7305
 7 CT     7312
 8 DC     7311
 9 DE     7307
10 FL     7307
# ℹ 41 more rows

# How many total births were there in this time period?
Birthdays |>
  summarize(sum(births))

  sum(births)
1    70486538

# How many total births were there per state in this time period, sorted from low to high?
Birthdays |>
  group_by(state) |>
  summarize(total=sum(births)) |>
  arrange(total)

# A tibble: 51 × 2
   state  total
   <chr>  <int>
 1 VT    147886
 2 WY    154019
 3 AK    185385
 4 DE    188705
 5 SD    235734
 6 ND    238696
 7 NV    241470
 8 MT    253884
 9 NH    264984
10 RI    265038
# ℹ 41 more rows

Exercise 6: Homework Reprise

Create a new dataset named daily_births that includes the total number of births per day (across all states) and the corresponding day of the week, eg, Mon. NOTE: Name the column with total births so that it’s easier to wrangle and plot.

daily_births <- Birthdays |>
  group_by(date, wday) |>
  summarize(usbirths=sum(births))
  daily_births

# A tibble: 7,305 × 3
# Groups:   date [7,305]
   date                wday  usbirths
   <dttm>              <ord>    <int>
 1 1969-01-01 00:00:00 Wed       8486
 2 1969-01-02 00:00:00 Thurs     9002
 3 1969-01-03 00:00:00 Fri       9542
 4 1969-01-04 00:00:00 Sat       8960
 5 1969-01-05 00:00:00 Sun       8390
 6 1969-01-06 00:00:00 Mon       9560
 7 1969-01-07 00:00:00 Tues      9738
 8 1969-01-08 00:00:00 Wed       9734
 9 1969-01-09 00:00:00 Thurs     9434
10 1969-01-10 00:00:00 Fri      10042
# ℹ 7,295 more rows
…
Part a

Calculate the total number of births in each month and year, eg, Jan 1969, Feb 1969, …. Label month by names not numbers, eg, Jan not 1. Then, plot the births by month and comment on what you learn. ::: {.callout-tip title=“Xtra notes on Dates and (Ordered) Factors”} You can use as.Date() to change character or numeric strings into dates! Still looking on how to combine ordinal factors, though (and change integers thereof?) It’s fairly difficult to combine ordered factors but the forcats package should be of some help. The fct_c() and fct_cross() functions are for just that! https://forcats.tidyverse.org/reference/index.html To actually make the integer year into a ordered factor is a whole other problem, but involves the native r functions factor() or ordered() :::

library(ggridges)
monthly_births <- Birthdays  |>
  mutate(mon_lab=month(date, label=TRUE)) |>
  group_by(year,mon_lab) |>
  summarize(mon_birth=sum(births))

monthly_births

# A tibble: 240 × 3
# Groups:   year [20]
    year mon_lab mon_birth
   <int> <ord>       <int>
 1  1969 Jan        293876
 2  1969 Feb        270534
 3  1969 Mar        296598
 4  1969 Apr        282470
 5  1969 May        289070
 6  1969 Jun        291448
 7  1969 Jul        318348
 8  1969 Aug        320922
 9  1969 Sep        312444
10  1969 Oct        311944
# ℹ 230 more rows
…
In 1988, calculate the total number of births per week in each state. Get rid of week “53”, which isn’t a complete week! Then, make a line plot of births by week for each state and comment on what you learn. For example, do you notice any seasonal trends? Are these the same in every state? Any outliers?

Its harder to see trends in the smaller states, but it seems that births peak from week 30 (around mid-late July) to week 40 (the end of September). This is most pronounce in California, with a steady peak centering around a maximum at week 38. Outliers are somewhat hard to see in this dataset, but Illinois seems to peak around week 12 (Mid-late March, that is, now!)

weekly_births <- Birthdays |>
  filter(year==1988) |>
  mutate(week=week(date)) |>
  filter(week!=53) |>
  group_by(state,week) |>
  summarize(wk_birth=sum(births))
weekly_births |>
arrange(desc(wk_birth))

# A tibble: 2,652 × 3
# Groups:   state [51]
   state  week wk_birth
   <chr> <dbl>    <int>
 1 CA       38    11396
 2 CA       39    11262
 3 CA       37    11042
 4 CA       34    10958
 5 CA       40    10931
 6 CA       35    10763
 7 CA       36    10757
 8 CA       32    10752
 9 CA       33    10751
10 CA       21    10582
# ℹ 2,642 more rows
…
Example 2: Multiple Verbs

# Sort Gentoo penguins from biggest to smallest with respect to their 
# bill length in cm (there are 10 mm in a cm)
penguins |> 
  filter(species == "Gentoo") |> 
  mutate(bill_length_cm = bill_length_mm / 10) |> 
  arrange(desc(bill_length_cm))

# A tibble: 124 × 9
   species island bill_length_mm bill_depth_mm flipper_length_mm body_mass_g
   <chr>   <chr>           <dbl>         <dbl>             <dbl>       <dbl>
 1 Gentoo  Biscoe           59.6          17                 230        6050
 2 Gentoo  Biscoe           55.9          17                 228        5600
 3 Gentoo  Biscoe           55.1          16                 230        5850
 4 Gentoo  Biscoe           54.3          15.7               231        5650
 5 Gentoo  Biscoe           53.4          15.8               219        5500
 6 Gentoo  Biscoe           52.5          15.6               221        5450
 7 Gentoo  Biscoe           52.2          17.1               228        5400
 8 Gentoo  Biscoe           52.1          17                 230        5550
 9 Gentoo  Biscoe           51.5          16.3               230        5500
10 Gentoo  Biscoe           51.3          14.2               218        5300
# ℹ 114 more rows
# ℹ 3 more variables: sex <chr>, year <dbl>, bill_length_cm <dbl>
…
Exercise 2: More selecting

# First: recall the variable names
names(penguins)

[1] "species"           "island"            "bill_length_mm"   
[4] "bill_depth_mm"     "flipper_length_mm" "body_mass_g"      
[7] "sex"               "year"             

# Use a shortcut to keep everything but the year and island variables
penguins |> 
  select(-year, -island)

# A tibble: 344 × 6
   species bill_length_mm bill_depth_mm flipper_length_mm body_mass_g sex   
   <chr>            <dbl>         <dbl>             <dbl>       <dbl> <chr> 
 1 Adelie            39.1          18.7               181        3750 male  
 2 Adelie            39.5          17.4               186        3800 female
 3 Adelie            40.3          18                 195        3250 female
 4 Adelie            NA            NA                  NA          NA <NA>  
 5 Adelie            36.7          19.3               193        3450 female
 6 Adelie            39.3          20.6               190        3650 male  
 7 Adelie            38.9          17.8               181        3625 female
 8 Adelie            39.2          19.6               195        4675 male  
 9 Adelie            34.1          18.1               193        3475 <NA>  
10 Adelie            42            20.2               190        4250 <NA>  
# ℹ 334 more rows

# Use a shortcut to keep only species and the penguin characteristics measured in mm
penguins |> 
  select(species, ends_with("mm"))

# A tibble: 344 × 4
   species bill_length_mm bill_depth_mm flipper_length_mm
   <chr>            <dbl>         <dbl>             <dbl>
 1 Adelie            39.1          18.7               181
 2 Adelie            39.5          17.4               186
 3 Adelie            40.3          18                 195
 4 Adelie            NA            NA                  NA
 5 Adelie            36.7          19.3               193
 6 Adelie            39.3          20.6               190
 7 Adelie            38.9          17.8               181
 8 Adelie            39.2          19.6               195
 9 Adelie            34.1          18.1               193
10 Adelie            42            20.2               190
# ℹ 334 more rows

# Use a shortcut to keep only species and bill-related measurements
penguins |> 
  select(species, starts_with("bill"))

# A tibble: 344 × 3
   species bill_length_mm bill_depth_mm
   <chr>            <dbl>         <dbl>
 1 Adelie            39.1          18.7
 2 Adelie            39.5          17.4
 3 Adelie            40.3          18  
 4 Adelie            NA            NA  
 5 Adelie            36.7          19.3
 6 Adelie            39.3          20.6
 7 Adelie            38.9          17.8
 8 Adelie            39.2          19.6
 9 Adelie            34.1          18.1
10 Adelie            42            20.2
# ℹ 334 more rows

# Use a shortcut to keep only species and the length-related characteristics
penguins |> 
  select(species, contains("length"))

# A tibble: 344 × 3
   species bill_length_mm flipper_length_mm
   <chr>            <dbl>             <dbl>
 1 Adelie            39.1               181
 2 Adelie            39.5               186
 3 Adelie            40.3               195
 4 Adelie            NA                  NA
 5 Adelie            36.7               193
 6 Adelie            39.3               190
 7 Adelie            38.9               181
 8 Adelie            39.2               195
 9 Adelie            34.1               193
10 Adelie            42                 190
# ℹ 334 more rows
…
